…
``` r
library(gapminder)
```

## 25.2 Gapminder

Data được sử dụng từ Hans Rosling, bác sĩ và nhà thống kê người thuỵ
Điện

``` r
gapminder
```

    ## # A tibble: 1,704 × 6
    ##    country     continent  year lifeExp      pop gdpPercap
    ##    <fct>       <fct>     <int>   <dbl>    <int>     <dbl>
    ##  1 Afghanistan Asia       1952    28.8  8425333      779.
    ##  2 Afghanistan Asia       1957    30.3  9240934      821.
    ##  3 Afghanistan Asia       1962    32.0 10267083      853.
    ##  4 Afghanistan Asia       1967    34.0 11537966      836.
    ##  5 Afghanistan Asia       1972    36.1 13079460      740.
    ##  6 Afghanistan Asia       1977    38.4 14880372      786.
    ##  7 Afghanistan Asia       1982    39.9 12881816      978.
    ##  8 Afghanistan Asia       1987    40.8 13867957      852.
    ##  9 Afghanistan Asia       1992    41.7 16317921      649.
    ## 10 Afghanistan Asia       1997    41.8 22227415      635.
    ## # ℹ 1,694 more rows
…
### 25.2.1 Nested data

Trong trường hợp này khó có thể sử dụng map function từ purr. Chúng ta
cần dạng data mới ở dạng nested dataframe

``` r
by_country <- gapminder %>%
  group_by(country, continent) %>%
  nest()

by_country
```

    ## # A tibble: 142 × 3
    ## # Groups:   country, continent [142]
    ##    country     continent data             
    ##    <fct>       <fct>     <list>           
    ##  1 Afghanistan Asia      <tibble [12 × 4]>
    ##  2 Albania     Europe    <tibble [12 × 4]>
    ##  3 Algeria     Africa    <tibble [12 × 4]>
    ##  4 Angola      Africa    <tibble [12 × 4]>
    ##  5 Argentina   Americas  <tibble [12 × 4]>
    ##  6 Australia   Oceania   <tibble [12 × 4]>
    ##  7 Austria     Europe    <tibble [12 × 4]>
    ##  8 Bahrain     Asia      <tibble [12 × 4]>
    ##  9 Bangladesh  Asia      <tibble [12 × 4]>
    ## 10 Belgium     Europe    <tibble [12 × 4]>
    ## # ℹ 132 more rows
…
``` r
models <- map(by_country$data, country_model)
```

Đưa models này thành một cột khác trong tibble

``` r
by_country <- by_country %>%
   mutate(model = map(data, country_model))
by_country
```

    ## # A tibble: 142 × 4
    ## # Groups:   country, continent [142]
    ##    country     continent data              model 
    ##    <fct>       <fct>     <list>            <list>
    ##  1 Afghanistan Asia      <tibble [12 × 4]> <lm>  
    ##  2 Albania     Europe    <tibble [12 × 4]> <lm>  
    ##  3 Algeria     Africa    <tibble [12 × 4]> <lm>  
    ##  4 Angola      Africa    <tibble [12 × 4]> <lm>  
    ##  5 Argentina   Americas  <tibble [12 × 4]> <lm>  
    ##  6 Australia   Oceania   <tibble [12 × 4]> <lm>  
    ##  7 Austria     Europe    <tibble [12 × 4]> <lm>  
    ##  8 Bahrain     Asia      <tibble [12 × 4]> <lm>  
    ##  9 Bangladesh  Asia      <tibble [12 × 4]> <lm>  
    ## 10 Belgium     Europe    <tibble [12 × 4]> <lm>  
    ## # ℹ 132 more rows

Cách làm này để chúng ta có thể chứa tất cả mọi biến và model liên quan
vào chung chùng một bảng. Trong trường hợp ta chỉ cần model của châu Âu

``` r
by_country %>%
  filter(continent == "Europe")
```

    ## # A tibble: 30 × 4
    ## # Groups:   country, continent [30]
    ##    country                continent data              model 
    ##    <fct>                  <fct>     <list>            <list>
    ##  1 Albania                Europe    <tibble [12 × 4]> <lm>  
    ##  2 Austria                Europe    <tibble [12 × 4]> <lm>  
    ##  3 Belgium                Europe    <tibble [12 × 4]> <lm>  
    ##  4 Bosnia and Herzegovina Europe    <tibble [12 × 4]> <lm>  
    ##  5 Bulgaria               Europe    <tibble [12 × 4]> <lm>  
    ##  6 Croatia                Europe    <tibble [12 × 4]> <lm>  
    ##  7 Czech Republic         Europe    <tibble [12 × 4]> <lm>  
    ##  8 Denmark                Europe    <tibble [12 × 4]> <lm>  
    ##  9 Finland                Europe    <tibble [12 × 4]> <lm>  
    ## 10 France                 Europe    <tibble [12 × 4]> <lm>  
    ## # ℹ 20 more rows
### 25.2.3 Unnesting

Từ data 142 nước chúng ta đã có 142 model khác nhau theo từng quốc gia
chung 1 bảng dataframe. Làm tượn tự để thêm cột residuals vào từng
model-data

``` r
by_country <- by_country %>%
  mutate(
    resids = map2(data, model, add_residuals)
  )
by_country
```

    ## # A tibble: 142 × 5
    ## # Groups:   country, continent [142]
    ##    country     continent data              model  resids           
    ##    <fct>       <fct>     <list>            <list> <list>           
    ##  1 Afghanistan Asia      <tibble [12 × 4]> <lm>   <tibble [12 × 5]>
    ##  2 Albania     Europe    <tibble [12 × 4]> <lm>   <tibble [12 × 5]>
    ##  3 Algeria     Africa    <tibble [12 × 4]> <lm>   <tibble [12 × 5]>
    ##  4 Angola      Africa    <tibble [12 × 4]> <lm>   <tibble [12 × 5]>
    ##  5 Argentina   Americas  <tibble [12 × 4]> <lm>   <tibble [12 × 5]>
    ##  6 Australia   Oceania   <tibble [12 × 4]> <lm>   <tibble [12 × 5]>
    ##  7 Austria     Europe    <tibble [12 × 4]> <lm>   <tibble [12 × 5]>
    ##  8 Bahrain     Asia      <tibble [12 × 4]> <lm>   <tibble [12 × 5]>
    ##  9 Bangladesh  Asia      <tibble [12 × 4]> <lm>   <tibble [12 × 5]>
    ## 10 Belgium     Europe    <tibble [12 × 4]> <lm>   <tibble [12 × 5]>
    ## # ℹ 132 more rows

Xem data residual bằng cách unnest

``` r
resids <- unnest(by_country, resids)
resids
```

    ## # A tibble: 1,704 × 9
    ## # Groups:   country, continent [142]
    ##    country     continent data     model   year lifeExp     pop gdpPercap   resid
    ##    <fct>       <fct>     <list>   <list> <int>   <dbl>   <int>     <dbl>   <dbl>
    ##  1 Afghanistan Asia      <tibble> <lm>    1952    28.8  8.43e6      779. -1.11  
    ##  2 Afghanistan Asia      <tibble> <lm>    1957    30.3  9.24e6      821. -0.952 
    ##  3 Afghanistan Asia      <tibble> <lm>    1962    32.0  1.03e7      853. -0.664 
    ##  4 Afghanistan Asia      <tibble> <lm>    1967    34.0  1.15e7      836. -0.0172
    ##  5 Afghanistan Asia      <tibble> <lm>    1972    36.1  1.31e7      740.  0.674 
    ##  6 Afghanistan Asia      <tibble> <lm>    1977    38.4  1.49e7      786.  1.65  
    ##  7 Afghanistan Asia      <tibble> <lm>    1982    39.9  1.29e7      978.  1.69  
    ##  8 Afghanistan Asia      <tibble> <lm>    1987    40.8  1.39e7      852.  1.28  
    ##  9 Afghanistan Asia      <tibble> <lm>    1992    41.7  1.63e7      649.  0.754 
    ## 10 Afghanistan Asia      <tibble> <lm>    1997    41.8  2.22e7      635. -0.534 
    ## # ℹ 1,694 more rows
…
    ## # A tibble: 1 × 12
    ##   r.squared adj.r.squared sigma statistic      p.value    df logLik   AIC   BIC
    ##       <dbl>         <dbl> <dbl>     <dbl>        <dbl> <dbl>  <dbl> <dbl> <dbl>
    ## 1     0.954         0.949 0.804      205. 0.0000000541     1  -13.3  32.6  34.1
    ## # ℹ 3 more variables: deviance <dbl>, df.residual <int>, nobs <int>

Lặp lại cho 142 model

``` r
by_country %>%
  mutate(glance = map(model, broom::glance)) %>%
  unnest(glance)
```

    ## # A tibble: 142 × 17
    ## # Groups:   country, continent [142]
    ##    country     continent data     model  resids   r.squared adj.r.squared sigma
    ##    <fct>       <fct>     <list>   <list> <list>       <dbl>         <dbl> <dbl>
    ##  1 Afghanistan Asia      <tibble> <lm>   <tibble>     0.948         0.942 1.22 
    ##  2 Albania     Europe    <tibble> <lm>   <tibble>     0.911         0.902 1.98 
    ##  3 Algeria     Africa    <tibble> <lm>   <tibble>     0.985         0.984 1.32 
    ##  4 Angola      Africa    <tibble> <lm>   <tibble>     0.888         0.877 1.41 
    ##  5 Argentina   Americas  <tibble> <lm>   <tibble>     0.996         0.995 0.292
    ##  6 Australia   Oceania   <tibble> <lm>   <tibble>     0.980         0.978 0.621
    ##  7 Austria     Europe    <tibble> <lm>   <tibble>     0.992         0.991 0.407
    ##  8 Bahrain     Asia      <tibble> <lm>   <tibble>     0.967         0.963 1.64 
    ##  9 Bangladesh  Asia      <tibble> <lm>   <tibble>     0.989         0.988 0.977
    ## 10 Belgium     Europe    <tibble> <lm>   <tibble>     0.995         0.994 0.293
    ## # ℹ 132 more rows
    ## # ℹ 9 more variables: statistic <dbl>, p.value <dbl>, df <dbl>, logLik <dbl>,
    ## #   AIC <dbl>, BIC <dbl>, deviance <dbl>, df.residual <int>, nobs <int>
…
    ## Warning: The `.drop` argument of `unnest()` is deprecated as of tidyr 1.0.0.
    ## ℹ All list-columns are now preserved.
    ## Call `lifecycle::last_lifecycle_warnings()` to see where this warning was
    ## generated.

Deprecated function already

Xem các model theo thứ tự rsquare

``` r
glance %>% 
  arrange(r.squared)
```

    ## # A tibble: 142 × 17
    ## # Groups:   country, continent [142]
    ##    country       continent data     model resids   r.squared adj.r.squared sigma
    ##    <fct>         <fct>     <list>   <lis> <list>       <dbl>         <dbl> <dbl>
    ##  1 Rwanda        Africa    <tibble> <lm>  <tibble>    0.0172      -0.0811   6.56
    ##  2 Botswana      Africa    <tibble> <lm>  <tibble>    0.0340      -0.0626   6.11
    ##  3 Zimbabwe      Africa    <tibble> <lm>  <tibble>    0.0562      -0.0381   7.21
    ##  4 Zambia        Africa    <tibble> <lm>  <tibble>    0.0598      -0.0342   4.53
    ##  5 Swaziland     Africa    <tibble> <lm>  <tibble>    0.0682      -0.0250   6.64
    ##  6 Lesotho       Africa    <tibble> <lm>  <tibble>    0.0849      -0.00666  5.93
    ##  7 Cote d'Ivoire Africa    <tibble> <lm>  <tibble>    0.283        0.212    3.93
    ##  8 South Africa  Africa    <tibble> <lm>  <tibble>    0.312        0.244    4.74
    ##  9 Uganda        Africa    <tibble> <lm>  <tibble>    0.342        0.276    3.19
    ## 10 Congo, Dem. … Africa    <tibble> <lm>  <tibble>    0.348        0.283    2.43
    ## # ℹ 132 more rows
    ## # ℹ 9 more variables: statistic <dbl>, p.value <dbl>, df <dbl>, logLik <dbl>,
    ## #   AIC <dbl>, BIC <dbl>, deviance <dbl>, df.residual <int>, nobs <int>
…
### 25.4.1 Sử dụng nesting

nest tạo nested dataframe. mỗi nested data frame là một meta
observation. Các cột khác sẽ là cột giá trị variables khác của meta
observation đó.

``` r
gapminder %>%
  group_by(country, continent) %>%
  nest()
```

    ## # A tibble: 142 × 3
    ## # Groups:   country, continent [142]
    ##    country     continent data             
    ##    <fct>       <fct>     <list>           
    ##  1 Afghanistan Asia      <tibble [12 × 4]>
    ##  2 Albania     Europe    <tibble [12 × 4]>
    ##  3 Algeria     Africa    <tibble [12 × 4]>
    ##  4 Angola      Africa    <tibble [12 × 4]>
    ##  5 Argentina   Americas  <tibble [12 × 4]>
    ##  6 Australia   Oceania   <tibble [12 × 4]>
    ##  7 Austria     Europe    <tibble [12 × 4]>
    ##  8 Bahrain     Asia      <tibble [12 × 4]>
    ##  9 Bangladesh  Asia      <tibble [12 × 4]>
    ## 10 Belgium     Europe    <tibble [12 × 4]>
    ## # ℹ 132 more rows

Ngoài ra còn có thể sự dụng trên ungroup data, nếu viết các cột cần
group lại với nhau ra

``` r
gapminder %>%
  nest(data = c(year:gdpPercap))
```

    ## # A tibble: 142 × 3
    ##    country     continent data             
    ##    <fct>       <fct>     <list>           
    ##  1 Afghanistan Asia      <tibble [12 × 4]>
    ##  2 Albania     Europe    <tibble [12 × 4]>
    ##  3 Algeria     Africa    <tibble [12 × 4]>
    ##  4 Angola      Africa    <tibble [12 × 4]>
    ##  5 Argentina   Americas  <tibble [12 × 4]>
    ##  6 Australia   Oceania   <tibble [12 × 4]>
    ##  7 Austria     Europe    <tibble [12 × 4]>
    ##  8 Bahrain     Asia      <tibble [12 × 4]>
    ##  9 Bangladesh  Asia      <tibble [12 × 4]>
    ## 10 Belgium     Europe    <tibble [12 × 4]>
    ## # ℹ 132 more rows
…
