…
``` r
library(modelr)
options(na.action = na.warn)
```

## 23.2 Model cơ bản

Đầu tiên xem data set của sim1 trong model r, gồm 2 biến x và y ở dạng
continuous

``` r
sim1
```

    ## # A tibble: 30 × 2
    ##        x     y
    ##    <int> <dbl>
    ##  1     1  4.20
    ##  2     1  7.51
    ##  3     1  2.13
    ##  4     2  8.99
    ##  5     2 10.2 
    ##  6     2 11.3 
    ##  7     3  7.36
    ##  8     3 10.5 
    ##  9     3 10.5 
    ## 10     4 12.4 
    ## # ℹ 20 more rows
…
Dùng purrr package để tính căn bậc hai của sai số bình phương cho 250
models

``` r
sim1_dist <- function(a1, a2) {
  measure_distance(c(a1, a2), sim1)
}

models <- models %>% 
  mutate(dist = purrr::map2_dbl(a1, a2, sim1_dist))
models
```

    ## # A tibble: 250 × 3
    ##        a1     a2  dist
    ##     <dbl>  <dbl> <dbl>
    ##  1  -8.63 -0.947  30.7
    ##  2  26.1  -1.40   10.6
    ##  3  21.4  -1.56   10.9
    ##  4 -15.5   2.79   15.9
    ##  5  22.0   4.00   29.1
    ##  6   7.04 -3.34   31.1
    ##  7 -13.5  -4.99   60.0
    ##  8  19.6   2.91   20.4
    ##  9  28.8   1.09   19.6
    ## 10 -11.5  -3.40   48.3
    ## # ℹ 240 more rows
…
Thêm giá trị y dự đoán vào

``` r
sim1
```

    ## # A tibble: 30 × 2
    ##        x     y
    ##    <int> <dbl>
    ##  1     1  4.20
    ##  2     1  7.51
    ##  3     1  2.13
    ##  4     2  8.99
    ##  5     2 10.2 
    ##  6     2 11.3 
    ##  7     3  7.36
    ##  8     3 10.5 
    ##  9     3 10.5 
    ## 10     4 12.4 
    ## # ℹ 20 more rows
…
### Residuals

Function add_residuals() để thêm giá trị residual vào bảng prediction

``` r
sim1 <- sim1 %>% 
  add_residuals(sim1_mod)
sim1
```

    ## # A tibble: 30 × 3
    ##        x     y    resid
    ##    <int> <dbl>    <dbl>
    ##  1     1  4.20 -2.07   
    ##  2     1  7.51  1.24   
    ##  3     1  2.13 -4.15   
    ##  4     2  8.99  0.665  
    ##  5     2 10.2   1.92   
    ##  6     2 11.3   2.97   
    ##  7     3  7.36 -3.02   
    ##  8     3 10.5   0.130  
    ##  9     3 10.5   0.136  
    ## 10     4 12.4   0.00763
    ## # ℹ 20 more rows
…
(y \~ x1 + x2): y = a_0 + a_1\*x1 + a_2\*x2

(y \~ x1 \* x2): y = a_0 + a_1\*x1 + a_2\*x2 +a_12\*x1\*x2

Tạo bảng prediction

``` r
grid <- sim3 %>% 
  data_grid(x1, x2) %>% 
  gather_predictions(mod1, mod2)
grid
```

    ## # A tibble: 80 × 4
    ##    model    x1 x2     pred
    ##    <chr> <int> <fct> <dbl>
    ##  1 mod1      1 a      1.67
    ##  2 mod1      1 b      4.56
    ##  3 mod1      1 c      6.48
    ##  4 mod1      1 d      4.03
    ##  5 mod1      2 a      1.48
    ##  6 mod1      2 b      4.37
    ##  7 mod1      2 c      6.28
    ##  8 mod1      2 d      3.84
    ##  9 mod1      3 a      1.28
    ## 10 mod1      3 b      4.17
    ## # ℹ 70 more rows
…
``` r
mod1 <- lm(y ~ x1 + x2, data = sim4)
mod2 <- lm(y ~ x1 * x2, data = sim4)

grid <- sim4 %>% 
  data_grid(
    x1 = seq_range(x1, 5), 
    x2 = seq_range(x2, 5) 
  ) %>% 
  gather_predictions(mod1, mod2)
grid
```

    ## # A tibble: 50 × 4
    ##    model    x1    x2   pred
    ##    <chr> <dbl> <dbl>  <dbl>
    ##  1 mod1   -1    -1    0.996
    ##  2 mod1   -1    -0.5 -0.395
    ##  3 mod1   -1     0   -1.79 
    ##  4 mod1   -1     0.5 -3.18 
    ##  5 mod1   -1     1   -4.57 
    ##  6 mod1   -0.5  -1    1.91 
    ##  7 mod1   -0.5  -0.5  0.516
    ##  8 mod1   -0.5   0   -0.875
    ##  9 mod1   -0.5   0.5 -2.27 
    ## 10 mod1   -0.5   1   -3.66 
    ## # ℹ 40 more rows
…
