…
access the set of valid levels directly

``` r
levels(f2)
```

    ## [1] "Dec" "Apr" "Jan" "Mar"

``` r
gss_cat
```

    ## # A tibble: 21,483 × 9
    ##     year marital         age race  rincome        partyid    relig denom tvhours
    ##    <int> <fct>         <int> <fct> <fct>          <fct>      <fct> <fct>   <int>
    ##  1  2000 Never married    26 White $8000 to 9999  Ind,near … Prot… Sout…      12
    ##  2  2000 Divorced         48 White $8000 to 9999  Not str r… Prot… Bapt…      NA
    ##  3  2000 Widowed          67 White Not applicable Independe… Prot… No d…       2
    ##  4  2000 Never married    39 White Not applicable Ind,near … Orth… Not …       4
    ##  5  2000 Divorced         25 White Not applicable Not str d… None  Not …       1
    ##  6  2000 Married          25 White $20000 - 24999 Strong de… Prot… Sout…      NA
    ##  7  2000 Never married    36 White $25000 or more Not str r… Chri… Not …       3
    ##  8  2000 Divorced         44 White $7000 to 7999  Ind,near … Prot… Luth…      NA
    ##  9  2000 Married          44 White $25000 or more Not str d… Prot… Other       0
    ## 10  2000 Married          47 White $25000 or more Strong re… Prot… Sout…       3
    ## # … with 21,473 more rows

load data (gss_cat: general social survey)

``` r
gss_cat %>% select(partyid, relig,denom)
```

    ## # A tibble: 21,483 × 3
    ##    partyid            relig              denom            
    ##    <fct>              <fct>              <fct>            
    ##  1 Ind,near rep       Protestant         Southern baptist 
    ##  2 Not str republican Protestant         Baptist-dk which 
    ##  3 Independent        Protestant         No denomination  
    ##  4 Ind,near rep       Orthodox-christian Not applicable   
    ##  5 Not str democrat   None               Not applicable   
    ##  6 Strong democrat    Protestant         Southern baptist 
    ##  7 Not str republican Christian          Not applicable   
    ##  8 Ind,near dem       Protestant         Lutheran-mo synod
    ##  9 Not str democrat   Protestant         Other            
    ## 10 Strong republican  Protestant         Southern baptist 
    ## # … with 21,473 more rows
…
``` r
gss_cat %>% select(rincome)
```

    ## # A tibble: 21,483 × 1
    ##    rincome       
    ##    <fct>         
    ##  1 $8000 to 9999 
    ##  2 $8000 to 9999 
    ##  3 Not applicable
    ##  4 Not applicable
    ##  5 Not applicable
    ##  6 $20000 - 24999
    ##  7 $25000 or more
    ##  8 $7000 to 7999 
    ##  9 $25000 or more
    ## 10 $25000 or more
    ## # … with 21,473 more rows
…
``` r
gss_cat %>% group_by(denom,relig) %>% 
  summarise(n=n())
```

    ## `summarise()` has grouped output by 'denom'. You can override using the
    ## `.groups` argument.

    ## # A tibble: 47 × 3
    ## # Groups:   denom [30]
    ##    denom           relig          n
    ##    <fct>           <fct>      <int>
    ##  1 No answer       No answer     93
    ##  2 No answer       Christian      2
    ##  3 No answer       Protestant    22
    ##  4 Don't know      Christian     11
    ##  5 Don't know      Protestant    41
    ##  6 No denomination Christian    452
    ##  7 No denomination Other          7
    ##  8 No denomination Protestant  1224
    ##  9 Other           Protestant  2534
    ## 10 Episcopal       Protestant   397
    ## # … with 37 more rows
…
