…
    ## [1] "box" "sex" "six" "tax"

Muốn đưa kết quả vào tibble

``` r
df <- tibble(
  word = words,
  i = seq_along(word)
)
df
```

    ## # A tibble: 980 × 2
    ##    word         i
    ##    <chr>    <int>
    ##  1 a            1
    ##  2 able         2
    ##  3 about        3
    ##  4 absolute     4
    ##  5 accept       5
    ##  6 account      6
    ##  7 achieve      7
    ##  8 across       8
    ##  9 act          9
    ## 10 active      10
    ## # … with 970 more rows
…
Tạo bảng đếm số nguyên âm và phụ âm

``` r
df %>% 
  mutate(
    vowels = str_count(word, "[aeiou]"),
    consonants = str_count(word, "[^aeiou]")
  )
```

    ## # A tibble: 980 × 4
    ##    word         i vowels consonants
    ##    <chr>    <int>  <int>      <int>
    ##  1 a            1      1          0
    ##  2 able         2      2          2
    ##  3 about        3      3          2
    ##  4 absolute     4      4          4
    ##  5 accept       5      2          4
    ##  6 account      6      3          4
    ##  7 achieve      7      4          3
    ##  8 across       8      2          4
    ##  9 act          9      1          2
    ## 10 active      10      3          3
    ## # … with 970 more rows
